A. Introduction to R • HCABiocTraining
…
…or contributed, e.g., dplyr to introduce
the ‘tidyverse’

library(dplyr)

A ‘tibble’ is like a ‘data.frame’, but more user-friendly

tbl <- tibble(
    x = rnorm(100),
    y = x + rnorm(100)
)

## e.g., only displays the first 10 rows
tbl
## # A tibble: 100 × 2
##          x       y
##      <dbl>   <dbl>
##  1 -0.253  -0.782 
##  2  1.29   -0.501 
##  3 -0.408   0.728 
##  4  0.620   2.00  
##  5  0.587  -0.820 
##  6  2.15    4.08  
##  7 -0.896   0.557 
##  8  0.514  -0.0915
##  9  0.0454  1.04  
## 10 -0.913  -0.651 
## # … with 90 more rows

The tidyverse makes use of ‘pipes’ |>. A pipe takes
the left-hand side and pass through to the right-hand side. Key dplyr ‘verbs’ can be
piped together: filter() (rows), select()
(columns), mutate() (change values),
group_by() (operate on groups of rows)

tbl |>
    ## e.g., just rows with non-negative values of x and y
    filter(x > 0, y > 0) |>
    ## add a column
    mutate(distance_from_origin = sqrt(x^2 + y^2))
## # A tibble: 31 × 3
##          x     y distance_from_origin
##      <dbl> <dbl>                <dbl>
##  1 0.620   2.00                 2.09 
##  2 2.15    4.08                 4.62 
##  3 0.0454  1.04                 1.04 
##  4 0.201   2.16                 2.17 
##  5 0.990   0.160                1.00 
##  6 1.76    1.58                 2.37 
##  7 0.402   1.69                 1.74 
##  8 0.00759 1.22                 1.22 
##  9 0.308   0.517                0.601
## 10 0.317   0.650                0.723
## # … with 21 more rows
…
