B. Accessing HCA Data from R / Bioconductor • HCABiocTraining
…
Retrieve the current database, and use ‘tidy’ functionality to mimic
the graphical selection in the web browser – 10x 3’ v3 (EFO:0009922)
assay, Affrican American ethnicity, female gender)

db <- db()
african_american_female <-
    datasets(db) |>
    dplyr::filter(
        facets_filter(assay, "ontology_term_id", "EFO:0009922"),
        facets_filter(self_reported_ethnicity, "label", "African American"),
        facets_filter(sex, "label", "female")
    )
african_american_female
## # A tibble: 21 × 28
##    dataset_id     colle…¹ donor…² assay  cell_…³ cell_…⁴ datas…⁵ devel…⁶ disease
##    <chr>          <chr>   <list>  <list>   <int> <list>  <chr>   <list>  <list> 
##  1 de985818-285f… c9706a… <list>  <list>   31696 <list>  https:… <list>  <list> 
##  2 f72958f5-7f42… 2f75d2… <list>  <list>  982538 <list>  https:… <list>  <list> 
##  3 bc2a7b3d-f04e… b9fc3d… <list>  <list>  109995 <list>  https:… <list>  <list> 
##  4 96a3f64b-0ee9… b9fc3d… <list>  <list>  239696 <list>  https:… <list>  <list> 
##  5 d9b4bc69-ed90… b9fc3d… <list>  <list>   20000 <list>  https:… <list>  <list> 
##  6 59b69042-47c2… b9fc3d… <list>  <list>   49139 <list>  https:… <list>  <list> 
##  7 e763ed0d-0e5a… b9fc3d… <list>  <list>    7274 <list>  https:… <list>  <list> 
##  8 db0752b9-f20e… b9fc3d… <list>  <list>   55348 <list>  https:… <list>  <list> 
##  9 e9175006-8978… 62e8f0… <list>  <list>   14072 <list>  https:… <list>  <list> 
## 10 d224c8e0-c28e… 62e8f0… <list>  <list>    8030 <list>  https:… <list>  <list> 
## # … with 11 more rows, 19 more variables: is_primary_data <chr>,
## #   is_valid <lgl>, linked_genesets <lgl>, mean_genes_per_cell <dbl>,
## #   name <chr>, organism <list>, processing_status <list>, published <lgl>,
## #   revision <int>, schema_version <chr>, self_reported_ethnicity <list>,
## #   sex <list>, suspension_type <list>, tissue <list>, tombstone <lgl>,
## #   created_at <date>, published_at <date>, revised_at <date>,
## #   updated_at <date>, and abbreviated variable names ¹​collection_id, …

‘Join’ selected datasets and files to identify the files associated
with these datasets.

selected_files <-
    left_join(
        african_american_female |> select(dataset_id),
        files(db),
        by = "dataset_id"
    )
selected_files
## # A tibble: 63 × 8
##    dataset_id       file_id filen…¹ filet…² s3_uri user_…³ created_at updated_at
##    <chr>            <chr>   <chr>   <chr>   <chr>  <lgl>   <date>     <date>    
##  1 de985818-285f-4… 15e9d9… local.… H5AD    s3://… TRUE    2022-10-21 2022-10-21
##  2 de985818-285f-4… 0d3974… explor… CXG     s3://… TRUE    2022-10-21 2022-10-21
##  3 de985818-285f-4… e254f9… local.… RDS     s3://… TRUE    2022-10-21 2022-10-21
##  4 f72958f5-7f42-4… 59bd46… local.… RDS     s3://… TRUE    2022-10-18 2022-10-18
##  5 f72958f5-7f42-4… 3a2467… explor… CXG     s3://… TRUE    2022-10-18 2022-10-18
##  6 f72958f5-7f42-4… d9f9d0… local.… H5AD    s3://… TRUE    2022-10-18 2022-10-18
##  7 bc2a7b3d-f04e-4… f6d9f2… local.… H5AD    s3://… TRUE    2022-10-18 2022-10-18
##  8 bc2a7b3d-f04e-4… 46de9c… explor… CXG     s3://… TRUE    2022-10-18 2022-10-18
##  9 bc2a7b3d-f04e-4… 5331f2… local.… RDS     s3://… TRUE    2022-10-18 2022-10-18
## 10 96a3f64b-0ee9-4… b77452… local.… H5AD    s3://… TRUE    2022-10-18 2022-10-18
## # … with 53 more rows, and abbreviated variable names ¹​filename, ²​filetype,
## #   ³​user_submitted
…
