C. Single-Cell Sequence Analysis • HCABiocTraining
…
is_mitochondrial <-
    rowData(pbmc3k)$Symbol |>
    startsWith("MT-") |>
    which()

Calculate per-cell quality control metrics…

stats <- perCellQCMetrics(pbmc3k, subsets=list(Mito=is_mitochondrial))
stats |> dplyr::as_tibble()
## # A tibble: 2,700 × 6
##      sum detected subsets_Mito_sum subsets_Mito_detected subsets_Mito_pe…¹ total
##    <dbl>    <int>            <dbl>                 <int>             <dbl> <dbl>
##  1  2421      781               73                    10             3.02   2421
##  2  4903     1352              186                    10             3.79   4903
##  3  3149     1131               28                     8             0.889  3149
##  4  2639      960               46                    10             1.74   2639
##  5   981      522               12                     5             1.22    981
##  6  2164      782               36                     7             1.66   2164
##  7  2176      783               83                    10             3.81   2176
##  8  2260      790               70                     9             3.10   2260
##  9  1276      533               15                     6             1.18   1276
## 10  1103      550               32                     7             2.90   1103
## # … with 2,690 more rows, and abbreviated variable name ¹​subsets_Mito_percent
…
